{
  "status": "ok",
  "metadata": {
    "count": 127530942,
    "query": "*",
    "backend_time": 263,
    "page": 1,
    "pages": 1275310
  },
  "results": [
    {
      "location.country": "United States",
      "location.registered_country": "United States",
      "location.longitude": -119.7143,
      "location.city": "Boardman",
      "ip": "173.205.31.126",
      "protocols": [
        "80\/http",
        "443\/https"
      ],
      "location.registered_country_code": "US",
      "location.country_code": "US",
      "location.province": "Oregon",
      "location.continent": "North America",
      "location.postal_code": "97818",
      "location.timezone": "America/Los_Angeles"
    }
  ]
}